127.0.0.1 - - [24/Dec/2018:08:53:01 +0700] "GET / HTTP/1.1" 404 1074
127.0.0.1 - - [24/Dec/2018:08:53:03 +0700] "GET /jsf/resources/bootstrap/css/bootstrap.min.css HTTP/1.1" 304 -
127.0.0.1 - - [24/Dec/2018:08:53:03 +0700] "GET /jsf/resources/css/style.css HTTP/1.1" 304 -
127.0.0.1 - - [24/Dec/2018:08:53:03 +0700] "GET /jsf/resources/bootstrap/js/bootstrap.min.js HTTP/1.1" 304 -
127.0.0.1 - - [24/Dec/2018:08:53:03 +0700] "GET /jsf/resources/js/custom.js HTTP/1.1" 200 682
127.0.0.1 - - [24/Dec/2018:08:53:06 +0700] "GET /jsf/ HTTP/1.1" 200 1522
127.0.0.1 - - [24/Dec/2018:08:57:00 +0700] "POST /jsf/faces/login.xhtml;jsessionid=E77E53A99CA13F8E3F0B81DF42797D63 HTTP/1.1" 302 -
127.0.0.1 - - [24/Dec/2018:08:57:01 +0700] "GET /jsf/faces/index.xhtml HTTP/1.1" 200 8418
127.0.0.1 - - [24/Dec/2018:08:57:01 +0700] "GET /jsf/faces/javax.faces.resource/1545577747157.jpg?ln=images HTTP/1.1" 200 54379
127.0.0.1 - - [24/Dec/2018:08:57:01 +0700] "GET /jsf/faces/javax.faces.resource/1545577794642.jpg?ln=images HTTP/1.1" 200 37515
127.0.0.1 - - [24/Dec/2018:08:57:01 +0700] "GET /jsf/faces/javax.faces.resource/1545577710726.jpg?ln=images HTTP/1.1" 200 54379
127.0.0.1 - - [24/Dec/2018:08:57:01 +0700] "GET /jsf/faces/javax.faces.resource/1545577814343.jpg?ln=images HTTP/1.1" 200 54811
127.0.0.1 - - [24/Dec/2018:08:57:01 +0700] "GET /jsf/faces/javax.faces.resource/1545577729965.jpg?ln=images HTTP/1.1" 200 54811
127.0.0.1 - - [24/Dec/2018:08:57:01 +0700] "GET /jsf/faces/javax.faces.resource/jsf.js?ln=javax.faces&stage=Development HTTP/1.1" 304 -
127.0.0.1 - - [24/Dec/2018:08:57:01 +0700] "GET /jsf/faces/resources/bootstrap/css/bootstrap.min.css HTTP/1.1" 304 -
127.0.0.1 - - [24/Dec/2018:08:57:01 +0700] "GET /jsf/faces/resources/bootstrap/js/bootstrap.min.js HTTP/1.1" 304 -
127.0.0.1 - - [24/Dec/2018:08:57:01 +0700] "GET /jsf/faces/resources/js/custom.js HTTP/1.1" 200 682
127.0.0.1 - - [24/Dec/2018:08:57:01 +0700] "GET /jsf/faces/resources/css/style.css HTTP/1.1" 200 3020
127.0.0.1 - - [24/Dec/2018:08:57:05 +0700] "POST /jsf/faces/index.xhtml HTTP/1.1" 302 -
127.0.0.1 - - [24/Dec/2018:08:57:05 +0700] "GET /jsf/faces/update.xhtml HTTP/1.1" 200 1983
127.0.0.1 - - [24/Dec/2018:08:57:09 +0700] "POST /jsf/faces/update.xhtml HTTP/1.1" 302 -
127.0.0.1 - - [24/Dec/2018:08:57:09 +0700] "GET /jsf/faces/index.xhtml HTTP/1.1" 200 8457
127.0.0.1 - - [24/Dec/2018:08:57:09 +0700] "GET /jsf/faces/javax.faces.resource/noimages.jpg?ln=images HTTP/1.1" 404 -
127.0.0.1 - - [24/Dec/2018:08:57:09 +0700] "GET /jsf/faces/javax.faces.resource/jsf.js?ln=javax.faces&stage=Development HTTP/1.1" 304 -
127.0.0.1 - - [24/Dec/2018:08:57:09 +0700] "GET /jsf/faces/javax.faces.resource/1545577747157.jpg?ln=images HTTP/1.1" 304 -
127.0.0.1 - - [24/Dec/2018:08:57:09 +0700] "GET /jsf/faces/javax.faces.resource/1545577710726.jpg?ln=images HTTP/1.1" 304 -
127.0.0.1 - - [24/Dec/2018:08:57:09 +0700] "GET /jsf/faces/javax.faces.resource/1545577794642.jpg?ln=images HTTP/1.1" 304 -
127.0.0.1 - - [24/Dec/2018:08:57:09 +0700] "GET /jsf/faces/javax.faces.resource/1545577729965.jpg?ln=images HTTP/1.1" 304 -
127.0.0.1 - - [24/Dec/2018:08:57:09 +0700] "GET /jsf/faces/javax.faces.resource/noimages.jpg?ln=images HTTP/1.1" 404 -
127.0.0.1 - - [24/Dec/2018:08:59:22 +0700] "GET /jsf/faces/index.xhtml HTTP/1.1" 200 8433
127.0.0.1 - - [24/Dec/2018:08:59:22 +0700] "GET /jsf/faces/resources/js/custom.js HTTP/1.1" 200 682
127.0.0.1 - - [24/Dec/2018:08:59:22 +0700] "GET /jsf/faces/resources/css/style.css HTTP/1.1" 200 3020
127.0.0.1 - - [24/Dec/2018:08:59:22 +0700] "GET /jsf/faces/javax.faces.resource/jsf.js;jsessionid=633F993D3901E7E2328916421320482C?ln=javax.faces&stage=Development HTTP/1.1" 200 152475
127.0.0.1 - - [24/Dec/2018:08:59:22 +0700] "GET /jsf/faces/javax.faces.resource/1545577710726.jpg?ln=images HTTP/1.1" 200 54379
127.0.0.1 - - [24/Dec/2018:08:59:22 +0700] "GET /jsf/faces/javax.faces.resource/1545577794642.jpg?ln=images HTTP/1.1" 200 37515
127.0.0.1 - - [24/Dec/2018:08:59:22 +0700] "GET /jsf/faces/javax.faces.resource/1545577729965.jpg?ln=images HTTP/1.1" 200 54811
127.0.0.1 - - [24/Dec/2018:08:59:22 +0700] "GET /jsf/faces/javax.faces.resource/noimages.jpg?ln=images HTTP/1.1" 404 -
127.0.0.1 - - [24/Dec/2018:08:59:22 +0700] "GET /jsf/faces/javax.faces.resource/1545577747157.jpg?ln=images HTTP/1.1" 200 54379
127.0.0.1 - - [24/Dec/2018:08:59:22 +0700] "GET /jsf/faces/resources/bootstrap/css/bootstrap.min.css HTTP/1.1" 200 8192
127.0.0.1 - - [24/Dec/2018:08:59:23 +0700] "GET /favicon.ico HTTP/1.1" 404 1085
127.0.0.1 - - [24/Dec/2018:08:59:27 +0700] "POST /jsf/faces/index.xhtml HTTP/1.1" 200 8257
127.0.0.1 - - [24/Dec/2018:08:59:27 +0700] "GET /jsf/faces/javax.faces.resource/noimages.jpg?ln=images HTTP/1.1" 404 -
127.0.0.1 - - [24/Dec/2018:08:59:27 +0700] "GET /jsf/faces/javax.faces.resource/jsf.js?ln=javax.faces&stage=Development HTTP/1.1" 304 -
127.0.0.1 - - [24/Dec/2018:08:59:27 +0700] "GET /jsf/faces/javax.faces.resource/1545577729965.jpg?ln=images HTTP/1.1" 304 -
127.0.0.1 - - [24/Dec/2018:08:59:27 +0700] "GET /jsf/faces/javax.faces.resource/1545577794642.jpg?ln=images HTTP/1.1" 304 -
127.0.0.1 - - [24/Dec/2018:08:59:27 +0700] "GET /jsf/faces/javax.faces.resource/1545577747157.jpg?ln=images HTTP/1.1" 304 -
127.0.0.1 - - [24/Dec/2018:08:59:27 +0700] "GET /jsf/faces/javax.faces.resource/1545577710726.jpg?ln=images HTTP/1.1" 304 -
127.0.0.1 - - [24/Dec/2018:08:59:28 +0700] "GET /jsf/faces/javax.faces.resource/noimages.jpg?ln=images HTTP/1.1" 404 -
127.0.0.1 - - [24/Dec/2018:08:59:32 +0700] "POST /jsf/faces/index.xhtml;jsessionid=633F993D3901E7E2328916421320482C HTTP/1.1" 302 -
127.0.0.1 - - [24/Dec/2018:08:59:32 +0700] "GET /jsf/faces/update.xhtml HTTP/1.1" 200 1983
127.0.0.1 - - [24/Dec/2018:08:59:32 +0700] "GET /jsf/faces/resources/css/style.css HTTP/1.1" 304 -
127.0.0.1 - - [24/Dec/2018:08:59:32 +0700] "GET /jsf/faces/resources/js/custom.js HTTP/1.1" 304 -
127.0.0.1 - - [24/Dec/2018:08:59:43 +0700] "POST /jsf/faces/update.xhtml HTTP/1.1" 302 -
127.0.0.1 - - [24/Dec/2018:08:59:43 +0700] "GET /jsf/faces/index.xhtml HTTP/1.1" 200 8315
127.0.0.1 - - [24/Dec/2018:08:59:43 +0700] "GET /jsf/faces/javax.faces.resource/1545616783021.jpg?ln=images HTTP/1.1" 200 54379
127.0.0.1 - - [24/Dec/2018:08:59:43 +0700] "GET /jsf/faces/javax.faces.resource/jsf.js?ln=javax.faces&stage=Development HTTP/1.1" 304 -
127.0.0.1 - - [24/Dec/2018:08:59:43 +0700] "GET /jsf/faces/javax.faces.resource/1545577747157.jpg?ln=images HTTP/1.1" 304 -
127.0.0.1 - - [24/Dec/2018:08:59:43 +0700] "GET /jsf/faces/javax.faces.resource/1545577794642.jpg?ln=images HTTP/1.1" 304 -
127.0.0.1 - - [24/Dec/2018:08:59:43 +0700] "GET /jsf/faces/javax.faces.resource/1545577729965.jpg?ln=images HTTP/1.1" 304 -
127.0.0.1 - - [24/Dec/2018:08:59:43 +0700] "GET /jsf/faces/javax.faces.resource/1545577710726.jpg?ln=images HTTP/1.1" 304 -
127.0.0.1 - - [24/Dec/2018:08:59:58 +0700] "POST /jsf/faces/index.xhtml HTTP/1.1" 200 8266
127.0.0.1 - - [24/Dec/2018:08:59:58 +0700] "GET /jsf/faces/resources/js/custom.js HTTP/1.1" 200 682
127.0.0.1 - - [24/Dec/2018:08:59:58 +0700] "GET /jsf/faces/javax.faces.resource/1545616783021.jpg?ln=images HTTP/1.1" 200 54379
127.0.0.1 - - [24/Dec/2018:08:59:58 +0700] "GET /jsf/faces/javax.faces.resource/jsf.js?ln=javax.faces&stage=Development HTTP/1.1" 304 -
127.0.0.1 - - [24/Dec/2018:08:59:58 +0700] "GET /jsf/faces/resources/css/style.css HTTP/1.1" 200 3020
127.0.0.1 - - [24/Dec/2018:08:59:58 +0700] "GET /jsf/faces/javax.faces.resource/1545577729965.jpg?ln=images HTTP/1.1" 304 -
127.0.0.1 - - [24/Dec/2018:08:59:58 +0700] "GET /jsf/faces/javax.faces.resource/1545577794642.jpg?ln=images HTTP/1.1" 304 -
127.0.0.1 - - [24/Dec/2018:08:59:58 +0700] "GET /jsf/faces/resources/bootstrap/css/bootstrap.min.css HTTP/1.1" 200 140936
127.0.0.1 - - [24/Dec/2018:08:59:58 +0700] "GET /jsf/faces/javax.faces.resource/1545577747157.jpg?ln=images HTTP/1.1" 304 -
127.0.0.1 - - [24/Dec/2018:08:59:58 +0700] "GET /jsf/faces/javax.faces.resource/1545577710726.jpg?ln=images HTTP/1.1" 304 -
127.0.0.1 - - [24/Dec/2018:08:59:58 +0700] "GET /jsf/faces/resources/bootstrap/js/bootstrap.min.js HTTP/1.1" 200 51039
127.0.0.1 - - [24/Dec/2018:09:00:03 +0700] "GET /jsf/faces/resources/js/custom.js HTTP/1.1" 200 682
127.0.0.1 - - [24/Dec/2018:09:00:03 +0700] "GET /jsf/faces/resources/bootstrap/js/bootstrap.min.js HTTP/1.1" 200 51039
127.0.0.1 - - [24/Dec/2018:09:50:04 +0700] "GET /jsf/faces/index.xhtml HTTP/1.1" 200 8189
127.0.0.1 - - [24/Dec/2018:09:50:04 +0700] "GET /jsf/faces/javax.faces.resource/jsf.js?ln=javax.faces&stage=Development HTTP/1.1" 304 -
127.0.0.1 - - [24/Dec/2018:09:50:04 +0700] "GET /jsf/faces/resources/js/custom.js HTTP/1.1" 200 682
127.0.0.1 - - [24/Dec/2018:09:50:04 +0700] "GET /jsf/faces/resources/bootstrap/css/bootstrap.min.css HTTP/1.1" 200 140936
127.0.0.1 - - [24/Dec/2018:09:50:04 +0700] "GET /jsf/faces/resources/css/style.css HTTP/1.1" 200 3020
127.0.0.1 - - [24/Dec/2018:09:50:04 +0700] "GET /jsf/faces/resources/bootstrap/js/bootstrap.min.js HTTP/1.1" 304 -
127.0.0.1 - - [24/Dec/2018:09:50:05 +0700] "GET /jsf/faces/javax.faces.resource/1545577710726.jpg?ln=images HTTP/1.1" 200 54379
127.0.0.1 - - [24/Dec/2018:09:50:05 +0700] "GET /jsf/faces/javax.faces.resource/1545577794642.jpg?ln=images HTTP/1.1" 200 37515
127.0.0.1 - - [24/Dec/2018:09:50:05 +0700] "GET /jsf/faces/javax.faces.resource/1545577747157.jpg?ln=images HTTP/1.1" 200 54379
127.0.0.1 - - [24/Dec/2018:09:50:05 +0700] "GET /jsf/faces/javax.faces.resource/1545577729965.jpg?ln=images HTTP/1.1" 200 54811
127.0.0.1 - - [24/Dec/2018:09:50:05 +0700] "GET /jsf/faces/javax.faces.resource/1545616783021.jpg?ln=images HTTP/1.1" 200 54379
127.0.0.1 - - [24/Dec/2018:09:50:21 +0700] "POST /jsf/faces/index.xhtml HTTP/1.1" 500 46184
127.0.0.1 - - [24/Dec/2018:09:50:25 +0700] "POST /jsf/faces/index.xhtml HTTP/1.1" 302 -
127.0.0.1 - - [24/Dec/2018:09:50:26 +0700] "GET /jsf/faces/update.xhtml HTTP/1.1" 200 1983
127.0.0.1 - - [24/Dec/2018:09:50:27 +0700] "POST /jsf/faces/update.xhtml HTTP/1.1" 302 -
127.0.0.1 - - [24/Dec/2018:09:50:27 +0700] "GET /jsf/faces/index.xhtml HTTP/1.1" 200 8243
127.0.0.1 - - [24/Dec/2018:09:50:27 +0700] "GET /jsf/faces/javax.faces.resource/jsf.js?ln=javax.faces&stage=Development HTTP/1.1" 304 -
127.0.0.1 - - [24/Dec/2018:09:50:27 +0700] "GET /jsf/faces/javax.faces.resource/noimages.jpg?ln=images HTTP/1.1" 404 -
127.0.0.1 - - [24/Dec/2018:09:50:27 +0700] "GET /jsf/faces/javax.faces.resource/noimages.jpg?ln=images HTTP/1.1" 404 -
127.0.0.1 - - [24/Dec/2018:09:50:27 +0700] "GET /jsf/faces/javax.faces.resource/1545577794642.jpg?ln=images HTTP/1.1" 304 -
127.0.0.1 - - [24/Dec/2018:09:50:27 +0700] "GET /jsf/faces/javax.faces.resource/1545577747157.jpg?ln=images HTTP/1.1" 304 -
127.0.0.1 - - [24/Dec/2018:09:50:27 +0700] "GET /jsf/faces/javax.faces.resource/1545577729965.jpg?ln=images HTTP/1.1" 304 -
127.0.0.1 - - [24/Dec/2018:09:50:27 +0700] "GET /jsf/faces/javax.faces.resource/1545577710726.jpg?ln=images HTTP/1.1" 304 -
127.0.0.1 - - [24/Dec/2018:09:50:29 +0700] "POST /jsf/faces/index.xhtml HTTP/1.1" 302 -
127.0.0.1 - - [24/Dec/2018:09:50:29 +0700] "GET /jsf/faces/update.xhtml HTTP/1.1" 200 1983
127.0.0.1 - - [24/Dec/2018:09:50:33 +0700] "POST /jsf/faces/update.xhtml HTTP/1.1" 302 -
127.0.0.1 - - [24/Dec/2018:09:50:33 +0700] "GET /jsf/faces/index.xhtml HTTP/1.1" 200 8314
127.0.0.1 - - [24/Dec/2018:09:50:33 +0700] "GET /jsf/faces/javax.faces.resource/jsf.js?ln=javax.faces&stage=Development HTTP/1.1" 304 -
127.0.0.1 - - [24/Dec/2018:09:50:33 +0700] "GET /jsf/faces/javax.faces.resource/1545619833121.jpg?ln=images HTTP/1.1" 200 54811
127.0.0.1 - - [24/Dec/2018:09:50:33 +0700] "GET /jsf/faces/javax.faces.resource/1545577794642.jpg?ln=images HTTP/1.1" 304 -
127.0.0.1 - - [24/Dec/2018:09:50:33 +0700] "GET /jsf/faces/javax.faces.resource/1545577747157.jpg?ln=images HTTP/1.1" 304 -
127.0.0.1 - - [24/Dec/2018:09:50:33 +0700] "GET /jsf/faces/javax.faces.resource/1545577729965.jpg?ln=images HTTP/1.1" 304 -
127.0.0.1 - - [24/Dec/2018:09:50:33 +0700] "GET /jsf/faces/javax.faces.resource/1545577710726.jpg?ln=images HTTP/1.1" 304 -
127.0.0.1 - - [24/Dec/2018:09:50:41 +0700] "POST /jsf/faces/index.xhtml HTTP/1.1" 200 8277
127.0.0.1 - - [24/Dec/2018:09:50:41 +0700] "GET /jsf/faces/javax.faces.resource/jsf.js?ln=javax.faces&stage=Development HTTP/1.1" 304 -
127.0.0.1 - - [24/Dec/2018:09:50:41 +0700] "GET /jsf/faces/javax.faces.resource/1545619841399.jpg?ln=images HTTP/1.1" 200 54379
127.0.0.1 - - [24/Dec/2018:09:50:41 +0700] "GET /jsf/faces/javax.faces.resource/1545619833121.jpg?ln=images HTTP/1.1" 304 -
127.0.0.1 - - [24/Dec/2018:09:50:41 +0700] "GET /jsf/faces/javax.faces.resource/1545577794642.jpg?ln=images HTTP/1.1" 304 -
127.0.0.1 - - [24/Dec/2018:09:50:41 +0700] "GET /jsf/faces/javax.faces.resource/1545577729965.jpg?ln=images HTTP/1.1" 304 -
127.0.0.1 - - [24/Dec/2018:09:50:41 +0700] "GET /jsf/faces/javax.faces.resource/1545577747157.jpg?ln=images HTTP/1.1" 304 -
127.0.0.1 - - [24/Dec/2018:09:50:57 +0700] "POST /jsf/faces/index.xhtml HTTP/1.1" 200 8277
127.0.0.1 - - [24/Dec/2018:09:50:57 +0700] "GET /jsf/faces/javax.faces.resource/jsf.js?ln=javax.faces&stage=Development HTTP/1.1" 304 -
127.0.0.1 - - [24/Dec/2018:09:50:57 +0700] "GET /jsf/faces/javax.faces.resource/1545619857325.jpg?ln=images HTTP/1.1" 200 49823
127.0.0.1 - - [24/Dec/2018:09:50:57 +0700] "GET /jsf/faces/javax.faces.resource/1545619833121.jpg?ln=images HTTP/1.1" 304 -
127.0.0.1 - - [24/Dec/2018:09:50:57 +0700] "GET /jsf/faces/javax.faces.resource/1545619841399.jpg?ln=images HTTP/1.1" 304 -
127.0.0.1 - - [24/Dec/2018:09:50:57 +0700] "GET /jsf/faces/javax.faces.resource/1545577794642.jpg?ln=images HTTP/1.1" 304 -
127.0.0.1 - - [24/Dec/2018:09:50:57 +0700] "GET /jsf/faces/javax.faces.resource/1545577747157.jpg?ln=images HTTP/1.1" 304 -
127.0.0.1 - - [24/Dec/2018:11:27:27 +0700] "GET / HTTP/1.1" 404 1074
127.0.0.1 - - [24/Dec/2018:11:27:35 +0700] "GET /jsf1/ HTTP/1.1" 500 19053
127.0.0.1 - - [24/Dec/2018:11:29:31 +0700] "GET / HTTP/1.1" 404 1074
127.0.0.1 - - [24/Dec/2018:11:29:51 +0700] "GET /jsf1/ HTTP/1.1" 200 6241
127.0.0.1 - - [24/Dec/2018:11:29:53 +0700] "GET /jsf1/resources/bootstrap/js/bootstrap.min.js HTTP/1.1" 304 -
127.0.0.1 - - [24/Dec/2018:11:29:53 +0700] "GET /jsf1/resources/bootstrap/css/bootstrap.min.css HTTP/1.1" 304 -
127.0.0.1 - - [24/Dec/2018:11:29:53 +0700] "GET /jsf1/resources/images/samsung1.jpg HTTP/1.1" 304 -
127.0.0.1 - - [24/Dec/2018:11:29:53 +0700] "GET /jsf1/resources/js/custom.js HTTP/1.1" 304 -
127.0.0.1 - - [24/Dec/2018:11:29:53 +0700] "GET /jsf1/resources/css/style.css HTTP/1.1" 200 1604
127.0.0.1 - - [24/Dec/2018:11:32:16 +0700] "GET /jsf1/ HTTP/1.1" 200 6241
127.0.0.1 - - [24/Dec/2018:11:32:17 +0700] "GET /jsf1/resources/css/style.css HTTP/1.1" 200 1604
127.0.0.1 - - [24/Dec/2018:11:32:17 +0700] "GET /jsf1/resources/bootstrap/css/bootstrap.min.css HTTP/1.1" 200 140936
127.0.0.1 - - [24/Dec/2018:11:32:17 +0700] "GET /jsf1/resources/js/custom.js HTTP/1.1" 200 503
127.0.0.1 - - [24/Dec/2018:11:32:17 +0700] "GET /jsf1/resources/bootstrap/js/bootstrap.min.js HTTP/1.1" 304 -
127.0.0.1 - - [24/Dec/2018:11:32:18 +0700] "GET /jsf1/resources/images/samsung1.jpg HTTP/1.1" 200 54318
127.0.0.1 - - [24/Dec/2018:11:32:45 +0700] "GET /jsf1/ HTTP/1.1" 200 6241
127.0.0.1 - - [24/Dec/2018:11:32:45 +0700] "GET /jsf1/resources/js/custom.js HTTP/1.1" 304 -
127.0.0.1 - - [24/Dec/2018:11:32:45 +0700] "GET /jsf1/resources/bootstrap/js/bootstrap.min.js HTTP/1.1" 304 -
127.0.0.1 - - [24/Dec/2018:11:32:45 +0700] "GET /jsf1/resources/css/style.css HTTP/1.1" 200 1604
127.0.0.1 - - [24/Dec/2018:11:32:45 +0700] "GET /jsf1/resources/bootstrap/css/bootstrap.min.css HTTP/1.1" 304 -
127.0.0.1 - - [24/Dec/2018:11:32:45 +0700] "GET /jsf1/resources/images/samsung1.jpg HTTP/1.1" 304 -
127.0.0.1 - - [24/Dec/2018:11:37:03 +0700] "GET / HTTP/1.1" 404 1074
127.0.0.1 - - [24/Dec/2018:11:37:10 +0700] "GET /jsf1/ HTTP/1.1" 200 6241
127.0.0.1 - - [24/Dec/2018:11:37:19 +0700] "GET /jsf1/ HTTP/1.1" 200 6241
127.0.0.1 - - [24/Dec/2018:11:37:19 +0700] "GET /jsf1/resources/css/style.css HTTP/1.1" 304 -
127.0.0.1 - - [24/Dec/2018:11:37:19 +0700] "GET /jsf1/resources/js/custom.js HTTP/1.1" 304 -
127.0.0.1 - - [24/Dec/2018:11:37:19 +0700] "GET /jsf1/resources/bootstrap/js/bootstrap.min.js HTTP/1.1" 304 -
127.0.0.1 - - [24/Dec/2018:11:37:19 +0700] "GET /jsf1/resources/bootstrap/css/bootstrap.min.css HTTP/1.1" 304 -
127.0.0.1 - - [24/Dec/2018:11:37:20 +0700] "GET /jsf1/resources/images/samsung1.jpg HTTP/1.1" 304 -
127.0.0.1 - - [24/Dec/2018:11:37:43 +0700] "GET /jsf1/resources/bootstrap/css/bootstrap.min.css.map HTTP/1.1" 304 -
127.0.0.1 - - [24/Dec/2018:11:40:58 +0700] "GET /jsf1/ HTTP/1.1" 200 3942
127.0.0.1 - - [24/Dec/2018:11:40:59 +0700] "GET /jsf1/resources/bootstrap/css/bootstrap.min.css HTTP/1.1" 304 -
127.0.0.1 - - [24/Dec/2018:11:40:59 +0700] "GET /jsf1/resources/css/style.css HTTP/1.1" 304 -
127.0.0.1 - - [24/Dec/2018:11:40:59 +0700] "GET /jsf1/resources/js/custom.js HTTP/1.1" 304 -
127.0.0.1 - - [24/Dec/2018:11:40:59 +0700] "GET /jsf1/resources/bootstrap/js/bootstrap.min.js HTTP/1.1" 304 -
127.0.0.1 - - [24/Dec/2018:11:41:01 +0700] "GET /jsf1/resources/bootstrap/css/bootstrap.min.css.map HTTP/1.1" 304 -
127.0.0.1 - - [24/Dec/2018:11:45:46 +0700] "GET / HTTP/1.1" 404 1074
127.0.0.1 - - [24/Dec/2018:11:45:56 +0700] "GET /jsf1/ HTTP/1.1" 200 4127
127.0.0.1 - - [24/Dec/2018:11:46:30 +0700] "GET /jsf1/ HTTP/1.1" 200 4127
127.0.0.1 - - [24/Dec/2018:11:46:34 +0700] "GET /jsf1/resources/css/style.css HTTP/1.1" 304 -
127.0.0.1 - - [24/Dec/2018:11:46:34 +0700] "GET /jsf1/resources/bootstrap/js/bootstrap.min.js HTTP/1.1" 304 -
127.0.0.1 - - [24/Dec/2018:11:46:34 +0700] "GET /jsf1/resources/js/custom.js HTTP/1.1" 304 -
127.0.0.1 - - [24/Dec/2018:11:46:34 +0700] "GET /jsf1/resources/bootstrap/css/bootstrap.min.css HTTP/1.1" 304 -
127.0.0.1 - - [24/Dec/2018:11:47:02 +0700] "GET /jsf1/ HTTP/1.1" 200 4127
127.0.0.1 - - [24/Dec/2018:11:47:41 +0700] "GET /jsf1/ HTTP/1.1" 200 4127
127.0.0.1 - - [24/Dec/2018:11:47:41 +0700] "GET /jsf1/resources/bootstrap/css/bootstrap.min.css HTTP/1.1" 304 -
127.0.0.1 - - [24/Dec/2018:11:47:41 +0700] "GET /jsf1/resources/css/style.css HTTP/1.1" 304 -
127.0.0.1 - - [24/Dec/2018:11:47:41 +0700] "GET /jsf1/resources/js/custom.js HTTP/1.1" 304 -
127.0.0.1 - - [24/Dec/2018:11:47:41 +0700] "GET /jsf1/resources/bootstrap/js/bootstrap.min.js HTTP/1.1" 304 -
127.0.0.1 - - [24/Dec/2018:11:47:52 +0700] "GET /jsf1/ HTTP/1.1" 200 4127
127.0.0.1 - - [24/Dec/2018:11:47:56 +0700] "GET /jsf1/ HTTP/1.1" 200 4127
127.0.0.1 - - [24/Dec/2018:11:47:56 +0700] "GET /jsf1/resources/bootstrap/css/bootstrap.min.css HTTP/1.1" 304 -
127.0.0.1 - - [24/Dec/2018:11:47:56 +0700] "GET /jsf1/resources/css/style.css HTTP/1.1" 304 -
127.0.0.1 - - [24/Dec/2018:11:47:56 +0700] "GET /jsf1/resources/js/custom.js HTTP/1.1" 304 -
127.0.0.1 - - [24/Dec/2018:11:47:56 +0700] "GET /jsf1/resources/bootstrap/js/bootstrap.min.js HTTP/1.1" 304 -
127.0.0.1 - - [24/Dec/2018:11:55:20 +0700] "GET /jsf1/ HTTP/1.1" 200 7718
127.0.0.1 - - [24/Dec/2018:11:55:21 +0700] "GET /jsf1/resources/images/images/oppo2.jpg HTTP/1.1" 404 1128
127.0.0.1 - - [24/Dec/2018:11:55:21 +0700] "GET /jsf1/resources/images/images/oppo1.jpg HTTP/1.1" 404 1128
127.0.0.1 - - [24/Dec/2018:11:55:21 +0700] "GET /jsf1/resources/images/images/samsung4.jpg HTTP/1.1" 404 1131
127.0.0.1 - - [24/Dec/2018:11:55:21 +0700] "GET /jsf1/resources/images/images/samsung3.jpg HTTP/1.1" 404 1131
127.0.0.1 - - [24/Dec/2018:11:55:21 +0700] "GET /jsf1/resources/images/images/samsung2.jpg HTTP/1.1" 404 1131
127.0.0.1 - - [24/Dec/2018:11:55:21 +0700] "GET /jsf1/resources/images/images/samsung1.jpg HTTP/1.1" 404 1131
127.0.0.1 - - [24/Dec/2018:11:55:35 +0700] "GET /jsf1/ HTTP/1.1" 200 7718
127.0.0.1 - - [24/Dec/2018:11:55:36 +0700] "GET /jsf1/resources/css/style.css HTTP/1.1" 304 -
127.0.0.1 - - [24/Dec/2018:11:55:36 +0700] "GET /jsf1/resources/bootstrap/css/bootstrap.min.css HTTP/1.1" 304 -
127.0.0.1 - - [24/Dec/2018:11:55:36 +0700] "GET /jsf1/resources/images/images/oppo2.jpg HTTP/1.1" 404 1128
127.0.0.1 - - [24/Dec/2018:11:55:36 +0700] "GET /jsf1/resources/images/images/samsung4.jpg HTTP/1.1" 404 1131
127.0.0.1 - - [24/Dec/2018:11:55:36 +0700] "GET /jsf1/resources/images/images/oppo1.jpg HTTP/1.1" 404 1128
127.0.0.1 - - [24/Dec/2018:11:55:36 +0700] "GET /jsf1/resources/images/images/samsung3.jpg HTTP/1.1" 404 1131
127.0.0.1 - - [24/Dec/2018:11:55:36 +0700] "GET /jsf1/resources/images/images/samsung2.jpg HTTP/1.1" 404 1131
127.0.0.1 - - [24/Dec/2018:11:55:36 +0700] "GET /jsf1/resources/images/images/samsung1.jpg HTTP/1.1" 404 1131
127.0.0.1 - - [24/Dec/2018:11:55:36 +0700] "GET /jsf1/resources/bootstrap/js/bootstrap.min.js HTTP/1.1" 304 -
127.0.0.1 - - [24/Dec/2018:11:55:36 +0700] "GET /jsf1/resources/js/custom.js HTTP/1.1" 304 -
127.0.0.1 - - [24/Dec/2018:11:56:37 +0700] "GET /jsf1/ HTTP/1.1" 200 7676
127.0.0.1 - - [24/Dec/2018:11:56:37 +0700] "GET /jsf1/resources/bootstrap/css/bootstrap.min.css HTTP/1.1" 304 -
127.0.0.1 - - [24/Dec/2018:11:56:37 +0700] "GET /jsf1/resources/css/style.css HTTP/1.1" 304 -
127.0.0.1 - - [24/Dec/2018:11:56:37 +0700] "GET /jsf1/resources/images/oppo1.jpg HTTP/1.1" 200 48845
127.0.0.1 - - [24/Dec/2018:11:56:37 +0700] "GET /jsf1/resources/images/oppo2.jpg HTTP/1.1" 200 51203
127.0.0.1 - - [24/Dec/2018:11:56:37 +0700] "GET /jsf1/resources/images/samsung3.jpg HTTP/1.1" 200 49763
127.0.0.1 - - [24/Dec/2018:11:56:37 +0700] "GET /jsf1/resources/images/samsung1.jpg HTTP/1.1" 304 -
127.0.0.1 - - [24/Dec/2018:11:56:37 +0700] "GET /jsf1/resources/images/samsung2.jpg HTTP/1.1" 200 54750
127.0.0.1 - - [24/Dec/2018:11:56:37 +0700] "GET /jsf1/resources/js/custom.js HTTP/1.1" 304 -
127.0.0.1 - - [24/Dec/2018:11:56:37 +0700] "GET /jsf1/resources/bootstrap/js/bootstrap.min.js HTTP/1.1" 304 -
127.0.0.1 - - [24/Dec/2018:11:56:37 +0700] "GET /jsf1/resources/images/samsung4.jpg HTTP/1.1" 200 37470
127.0.0.1 - - [24/Dec/2018:11:58:14 +0700] "GET /jsf1/resources/bootstrap/css/bootstrap.min.css.map HTTP/1.1" 304 -
127.0.0.1 - - [24/Dec/2018:11:59:24 +0700] "GET /jsf1/ HTTP/1.1" 200 7676
127.0.0.1 - - [24/Dec/2018:11:59:24 +0700] "GET /jsf1/resources/bootstrap/css/bootstrap.min.css HTTP/1.1" 304 -
127.0.0.1 - - [24/Dec/2018:11:59:24 +0700] "GET /jsf1/resources/css/style.css HTTP/1.1" 304 -
127.0.0.1 - - [24/Dec/2018:11:59:24 +0700] "GET /jsf1/resources/images/samsung3.jpg HTTP/1.1" 304 -
127.0.0.1 - - [24/Dec/2018:11:59:24 +0700] "GET /jsf1/resources/images/oppo1.jpg HTTP/1.1" 304 -
127.0.0.1 - - [24/Dec/2018:11:59:25 +0700] "GET /jsf1/resources/images/samsung2.jpg HTTP/1.1" 304 -
127.0.0.1 - - [24/Dec/2018:11:59:25 +0700] "GET /jsf1/resources/bootstrap/js/bootstrap.min.js HTTP/1.1" 304 -
127.0.0.1 - - [24/Dec/2018:11:59:25 +0700] "GET /jsf1/resources/images/oppo2.jpg HTTP/1.1" 304 -
127.0.0.1 - - [24/Dec/2018:11:59:25 +0700] "GET /jsf1/resources/images/samsung4.jpg HTTP/1.1" 304 -
127.0.0.1 - - [24/Dec/2018:11:59:25 +0700] "GET /jsf1/resources/images/samsung1.jpg HTTP/1.1" 304 -
127.0.0.1 - - [24/Dec/2018:11:59:25 +0700] "GET /jsf1/resources/js/custom.js HTTP/1.1" 304 -
127.0.0.1 - - [24/Dec/2018:12:00:19 +0700] "GET /jsf1/ HTTP/1.1" 200 7676
127.0.0.1 - - [24/Dec/2018:12:00:19 +0700] "GET /jsf1/resources/bootstrap/css/bootstrap.min.css HTTP/1.1" 304 -
127.0.0.1 - - [24/Dec/2018:12:00:19 +0700] "GET /jsf1/resources/css/style.css HTTP/1.1" 200 1635
127.0.0.1 - - [24/Dec/2018:12:00:19 +0700] "GET /jsf1/resources/images/oppo1.jpg HTTP/1.1" 304 -
127.0.0.1 - - [24/Dec/2018:12:00:19 +0700] "GET /jsf1/resources/images/samsung2.jpg HTTP/1.1" 304 -
127.0.0.1 - - [24/Dec/2018:12:00:19 +0700] "GET /jsf1/resources/images/samsung1.jpg HTTP/1.1" 304 -
127.0.0.1 - - [24/Dec/2018:12:00:19 +0700] "GET /jsf1/resources/images/samsung4.jpg HTTP/1.1" 304 -
127.0.0.1 - - [24/Dec/2018:12:00:19 +0700] "GET /jsf1/resources/bootstrap/js/bootstrap.min.js HTTP/1.1" 304 -
127.0.0.1 - - [24/Dec/2018:12:00:19 +0700] "GET /jsf1/resources/images/oppo2.jpg HTTP/1.1" 304 -
127.0.0.1 - - [24/Dec/2018:12:00:19 +0700] "GET /jsf1/resources/js/custom.js HTTP/1.1" 304 -
127.0.0.1 - - [24/Dec/2018:12:00:19 +0700] "GET /jsf1/resources/images/samsung3.jpg HTTP/1.1" 304 -
127.0.0.1 - - [24/Dec/2018:12:00:23 +0700] "GET /jsf1/ HTTP/1.1" 200 7676
127.0.0.1 - - [24/Dec/2018:12:00:23 +0700] "GET /jsf1/resources/bootstrap/js/bootstrap.min.js HTTP/1.1" 304 -
127.0.0.1 - - [24/Dec/2018:12:00:23 +0700] "GET /jsf1/resources/bootstrap/css/bootstrap.min.css HTTP/1.1" 304 -
127.0.0.1 - - [24/Dec/2018:12:00:23 +0700] "GET /jsf1/resources/js/custom.js HTTP/1.1" 304 -
127.0.0.1 - - [24/Dec/2018:12:00:23 +0700] "GET /jsf1/resources/css/style.css HTTP/1.1" 304 -
127.0.0.1 - - [24/Dec/2018:12:00:23 +0700] "GET /jsf1/resources/images/samsung1.jpg HTTP/1.1" 304 -
127.0.0.1 - - [24/Dec/2018:12:00:23 +0700] "GET /jsf1/resources/images/samsung4.jpg HTTP/1.1" 304 -
127.0.0.1 - - [24/Dec/2018:12:00:23 +0700] "GET /jsf1/resources/images/oppo1.jpg HTTP/1.1" 304 -
127.0.0.1 - - [24/Dec/2018:12:00:23 +0700] "GET /jsf1/resources/images/samsung2.jpg HTTP/1.1" 304 -
127.0.0.1 - - [24/Dec/2018:12:00:23 +0700] "GET /jsf1/resources/images/samsung3.jpg HTTP/1.1" 304 -
127.0.0.1 - - [24/Dec/2018:12:00:23 +0700] "GET /jsf1/resources/images/oppo2.jpg HTTP/1.1" 304 -
127.0.0.1 - - [24/Dec/2018:12:01:17 +0700] "GET /jsf1/ HTTP/1.1" 200 7676
127.0.0.1 - - [24/Dec/2018:12:01:17 +0700] "GET /jsf1/resources/css/style.css HTTP/1.1" 304 -
127.0.0.1 - - [24/Dec/2018:12:01:17 +0700] "GET /jsf1/resources/bootstrap/css/bootstrap.min.css HTTP/1.1" 304 -
127.0.0.1 - - [24/Dec/2018:12:01:17 +0700] "GET /jsf1/resources/images/oppo1.jpg HTTP/1.1" 304 -
127.0.0.1 - - [24/Dec/2018:12:01:17 +0700] "GET /jsf1/resources/images/oppo2.jpg HTTP/1.1" 304 -
127.0.0.1 - - [24/Dec/2018:12:01:17 +0700] "GET /jsf1/resources/js/custom.js HTTP/1.1" 304 -
127.0.0.1 - - [24/Dec/2018:12:01:17 +0700] "GET /jsf1/resources/images/samsung4.jpg HTTP/1.1" 304 -
127.0.0.1 - - [24/Dec/2018:12:01:17 +0700] "GET /jsf1/resources/images/samsung2.jpg HTTP/1.1" 304 -
127.0.0.1 - - [24/Dec/2018:12:01:17 +0700] "GET /jsf1/resources/images/samsung3.jpg HTTP/1.1" 304 -
127.0.0.1 - - [24/Dec/2018:12:01:17 +0700] "GET /jsf1/resources/bootstrap/js/bootstrap.min.js HTTP/1.1" 304 -
127.0.0.1 - - [24/Dec/2018:12:01:17 +0700] "GET /jsf1/resources/images/samsung1.jpg HTTP/1.1" 304 -
127.0.0.1 - - [24/Dec/2018:12:02:28 +0700] "GET /jsf1/ HTTP/1.1" 200 7676
127.0.0.1 - - [24/Dec/2018:12:02:28 +0700] "GET /jsf1/resources/bootstrap/css/bootstrap.min.css HTTP/1.1" 304 -
127.0.0.1 - - [24/Dec/2018:12:02:28 +0700] "GET /jsf1/resources/js/custom.js HTTP/1.1" 304 -
127.0.0.1 - - [24/Dec/2018:12:02:28 +0700] "GET /jsf1/resources/css/style.css HTTP/1.1" 200 1666
127.0.0.1 - - [24/Dec/2018:12:02:28 +0700] "GET /jsf1/resources/bootstrap/js/bootstrap.min.js HTTP/1.1" 304 -
127.0.0.1 - - [24/Dec/2018:12:02:28 +0700] "GET /jsf1/resources/images/oppo2.jpg HTTP/1.1" 304 -
127.0.0.1 - - [24/Dec/2018:12:02:28 +0700] "GET /jsf1/resources/images/samsung2.jpg HTTP/1.1" 304 -
127.0.0.1 - - [24/Dec/2018:12:02:28 +0700] "GET /jsf1/resources/images/samsung4.jpg HTTP/1.1" 304 -
127.0.0.1 - - [24/Dec/2018:12:02:28 +0700] "GET /jsf1/resources/images/samsung1.jpg HTTP/1.1" 304 -
127.0.0.1 - - [24/Dec/2018:12:02:28 +0700] "GET /jsf1/resources/images/samsung3.jpg HTTP/1.1" 304 -
127.0.0.1 - - [24/Dec/2018:12:02:28 +0700] "GET /jsf1/resources/images/oppo1.jpg HTTP/1.1" 304 -
127.0.0.1 - - [24/Dec/2018:12:03:09 +0700] "GET /jsf1/ HTTP/1.1" 200 7676
127.0.0.1 - - [24/Dec/2018:12:03:09 +0700] "GET /jsf1/resources/images/oppo2.jpg HTTP/1.1" 200 51203
127.0.0.1 - - [24/Dec/2018:12:03:09 +0700] "GET /jsf1/resources/images/samsung3.jpg HTTP/1.1" 200 49763
127.0.0.1 - - [24/Dec/2018:12:03:09 +0700] "GET /jsf1/resources/images/oppo1.jpg HTTP/1.1" 200 48845
127.0.0.1 - - [24/Dec/2018:12:03:09 +0700] "GET /jsf1/resources/images/samsung4.jpg HTTP/1.1" 200 37470
127.0.0.1 - - [24/Dec/2018:12:03:09 +0700] "GET /jsf1/resources/images/samsung2.jpg HTTP/1.1" 200 54750
127.0.0.1 - - [24/Dec/2018:12:03:15 +0700] "GET /jsf1/ HTTP/1.1" 200 7676
127.0.0.1 - - [24/Dec/2018:12:03:15 +0700] "GET /jsf1/resources/bootstrap/css/bootstrap.min.css HTTP/1.1" 304 -
127.0.0.1 - - [24/Dec/2018:12:03:15 +0700] "GET /jsf1/resources/css/style.css HTTP/1.1" 304 -
127.0.0.1 - - [24/Dec/2018:12:03:15 +0700] "GET /jsf1/resources/bootstrap/js/bootstrap.min.js HTTP/1.1" 304 -
127.0.0.1 - - [24/Dec/2018:12:03:15 +0700] "GET /jsf1/resources/js/custom.js HTTP/1.1" 304 -
127.0.0.1 - - [24/Dec/2018:12:03:15 +0700] "GET /jsf1/resources/images/oppo1.jpg HTTP/1.1" 304 -
127.0.0.1 - - [24/Dec/2018:12:03:15 +0700] "GET /jsf1/resources/images/samsung4.jpg HTTP/1.1" 304 -
127.0.0.1 - - [24/Dec/2018:12:03:15 +0700] "GET /jsf1/resources/images/samsung2.jpg HTTP/1.1" 304 -
127.0.0.1 - - [24/Dec/2018:12:03:15 +0700] "GET /jsf1/resources/images/samsung1.jpg HTTP/1.1" 304 -
127.0.0.1 - - [24/Dec/2018:12:03:15 +0700] "GET /jsf1/resources/images/oppo2.jpg HTTP/1.1" 304 -
127.0.0.1 - - [24/Dec/2018:12:03:15 +0700] "GET /jsf1/resources/images/samsung3.jpg HTTP/1.1" 304 -
127.0.0.1 - - [24/Dec/2018:12:03:26 +0700] "GET /jsf1/ HTTP/1.1" 200 7676
127.0.0.1 - - [24/Dec/2018:12:03:26 +0700] "GET /jsf1/resources/bootstrap/css/bootstrap.min.css HTTP/1.1" 304 -
127.0.0.1 - - [24/Dec/2018:12:03:26 +0700] "GET /jsf1/resources/css/style.css HTTP/1.1" 200 1666
127.0.0.1 - - [24/Dec/2018:12:03:26 +0700] "GET /jsf1/resources/images/samsung2.jpg HTTP/1.1" 304 -
127.0.0.1 - - [24/Dec/2018:12:03:26 +0700] "GET /jsf1/resources/images/oppo1.jpg HTTP/1.1" 304 -
127.0.0.1 - - [24/Dec/2018:12:03:26 +0700] "GET /jsf1/resources/images/samsung4.jpg HTTP/1.1" 304 -
127.0.0.1 - - [24/Dec/2018:12:03:26 +0700] "GET /jsf1/resources/images/samsung3.jpg HTTP/1.1" 304 -
127.0.0.1 - - [24/Dec/2018:12:03:26 +0700] "GET /jsf1/resources/images/oppo2.jpg HTTP/1.1" 304 -
127.0.0.1 - - [24/Dec/2018:12:03:26 +0700] "GET /jsf1/resources/images/samsung1.jpg HTTP/1.1" 304 -
127.0.0.1 - - [24/Dec/2018:12:03:26 +0700] "GET /jsf1/resources/js/custom.js HTTP/1.1" 304 -
127.0.0.1 - - [24/Dec/2018:12:03:26 +0700] "GET /jsf1/resources/bootstrap/js/bootstrap.min.js HTTP/1.1" 304 -
127.0.0.1 - - [24/Dec/2018:12:03:39 +0700] "GET /jsf1/ HTTP/1.1" 200 7676
127.0.0.1 - - [24/Dec/2018:12:03:39 +0700] "GET /jsf1/resources/bootstrap/css/bootstrap.min.css HTTP/1.1" 304 -
127.0.0.1 - - [24/Dec/2018:12:03:39 +0700] "GET /jsf1/resources/css/style.css HTTP/1.1" 304 -
127.0.0.1 - - [24/Dec/2018:12:03:39 +0700] "GET /jsf1/resources/js/custom.js HTTP/1.1" 304 -
127.0.0.1 - - [24/Dec/2018:12:03:39 +0700] "GET /jsf1/resources/bootstrap/js/bootstrap.min.js HTTP/1.1" 304 -
127.0.0.1 - - [24/Dec/2018:12:03:39 +0700] "GET /jsf1/resources/images/oppo2.jpg HTTP/1.1" 304 -
127.0.0.1 - - [24/Dec/2018:12:03:39 +0700] "GET /jsf1/resources/images/oppo1.jpg HTTP/1.1" 304 -
127.0.0.1 - - [24/Dec/2018:12:03:39 +0700] "GET /jsf1/resources/images/samsung4.jpg HTTP/1.1" 304 -
127.0.0.1 - - [24/Dec/2018:12:03:39 +0700] "GET /jsf1/resources/images/samsung3.jpg HTTP/1.1" 304 -
127.0.0.1 - - [24/Dec/2018:12:03:39 +0700] "GET /jsf1/resources/images/samsung1.jpg HTTP/1.1" 304 -
127.0.0.1 - - [24/Dec/2018:12:03:39 +0700] "GET /jsf1/resources/images/samsung2.jpg HTTP/1.1" 304 -
127.0.0.1 - - [24/Dec/2018:12:03:49 +0700] "GET /jsf1/resources/bootstrap/css/bootstrap.min.css.map HTTP/1.1" 304 -
127.0.0.1 - - [24/Dec/2018:12:04:16 +0700] "GET /jsf1/ HTTP/1.1" 200 7676
127.0.0.1 - - [24/Dec/2018:12:04:17 +0700] "GET /jsf1/resources/bootstrap/css/bootstrap.min.css HTTP/1.1" 304 -
127.0.0.1 - - [24/Dec/2018:12:04:17 +0700] "GET /jsf1/resources/css/style.css HTTP/1.1" 304 -
127.0.0.1 - - [24/Dec/2018:12:04:17 +0700] "GET /jsf1/resources/images/oppo2.jpg HTTP/1.1" 304 -
127.0.0.1 - - [24/Dec/2018:12:04:17 +0700] "GET /jsf1/resources/images/oppo1.jpg HTTP/1.1" 304 -
127.0.0.1 - - [24/Dec/2018:12:04:17 +0700] "GET /jsf1/resources/images/samsung3.jpg HTTP/1.1" 304 -
127.0.0.1 - - [24/Dec/2018:12:04:17 +0700] "GET /jsf1/resources/bootstrap/js/bootstrap.min.js HTTP/1.1" 304 -
127.0.0.1 - - [24/Dec/2018:12:04:17 +0700] "GET /jsf1/resources/images/samsung4.jpg HTTP/1.1" 304 -
127.0.0.1 - - [24/Dec/2018:12:04:17 +0700] "GET /jsf1/resources/js/custom.js HTTP/1.1" 304 -
127.0.0.1 - - [24/Dec/2018:12:04:17 +0700] "GET /jsf1/resources/images/samsung2.jpg HTTP/1.1" 304 -
127.0.0.1 - - [24/Dec/2018:12:04:17 +0700] "GET /jsf1/resources/images/samsung1.jpg HTTP/1.1" 304 -
127.0.0.1 - - [24/Dec/2018:12:04:18 +0700] "GET /jsf1/resources/bootstrap/css/bootstrap.min.css.map HTTP/1.1" 304 -
127.0.0.1 - - [24/Dec/2018:12:05:05 +0700] "GET /jsf1/ HTTP/1.1" 200 7676
127.0.0.1 - - [24/Dec/2018:12:05:05 +0700] "GET /jsf1/resources/bootstrap/css/bootstrap.min.css HTTP/1.1" 304 -
127.0.0.1 - - [24/Dec/2018:12:05:05 +0700] "GET /jsf1/resources/css/style.css HTTP/1.1" 304 -
127.0.0.1 - - [24/Dec/2018:12:05:05 +0700] "GET /jsf1/resources/js/custom.js HTTP/1.1" 304 -
127.0.0.1 - - [24/Dec/2018:12:05:05 +0700] "GET /jsf1/resources/bootstrap/js/bootstrap.min.js HTTP/1.1" 304 -
127.0.0.1 - - [24/Dec/2018:12:05:05 +0700] "GET /jsf1/resources/images/samsung2.jpg HTTP/1.1" 304 -
127.0.0.1 - - [24/Dec/2018:12:05:05 +0700] "GET /jsf1/resources/images/samsung4.jpg HTTP/1.1" 304 -
127.0.0.1 - - [24/Dec/2018:12:05:05 +0700] "GET /jsf1/resources/images/oppo1.jpg HTTP/1.1" 304 -
127.0.0.1 - - [24/Dec/2018:12:05:05 +0700] "GET /jsf1/resources/images/samsung3.jpg HTTP/1.1" 304 -
127.0.0.1 - - [24/Dec/2018:12:05:05 +0700] "GET /jsf1/resources/images/samsung1.jpg HTTP/1.1" 304 -
127.0.0.1 - - [24/Dec/2018:12:05:05 +0700] "GET /jsf1/resources/images/oppo2.jpg HTTP/1.1" 304 -
127.0.0.1 - - [24/Dec/2018:12:05:32 +0700] "GET /jsf1/ HTTP/1.1" 200 7676
127.0.0.1 - - [24/Dec/2018:12:05:32 +0700] "GET /jsf1/resources/bootstrap/css/bootstrap.min.css HTTP/1.1" 304 -
127.0.0.1 - - [24/Dec/2018:12:05:32 +0700] "GET /jsf1/resources/css/style.css HTTP/1.1" 304 -
127.0.0.1 - - [24/Dec/2018:12:05:32 +0700] "GET /jsf1/resources/js/custom.js HTTP/1.1" 304 -
127.0.0.1 - - [24/Dec/2018:12:05:32 +0700] "GET /jsf1/resources/images/oppo1.jpg HTTP/1.1" 304 -
127.0.0.1 - - [24/Dec/2018:12:05:32 +0700] "GET /jsf1/resources/images/samsung1.jpg HTTP/1.1" 304 -
127.0.0.1 - - [24/Dec/2018:12:05:32 +0700] "GET /jsf1/resources/images/samsung2.jpg HTTP/1.1" 304 -
127.0.0.1 - - [24/Dec/2018:12:05:32 +0700] "GET /jsf1/resources/images/samsung4.jpg HTTP/1.1" 304 -
127.0.0.1 - - [24/Dec/2018:12:05:32 +0700] "GET /jsf1/resources/images/samsung3.jpg HTTP/1.1" 304 -
127.0.0.1 - - [24/Dec/2018:12:05:32 +0700] "GET /jsf1/resources/images/oppo2.jpg HTTP/1.1" 304 -
127.0.0.1 - - [24/Dec/2018:12:05:32 +0700] "GET /jsf1/resources/bootstrap/js/bootstrap.min.js HTTP/1.1" 304 -
