127.0.0.1 - - [28/Dec/2018:11:36:22 +0700] "GET / HTTP/1.1" 404 1074
127.0.0.1 - - [28/Dec/2018:11:36:23 +0700] "GET /struts/resources/images/oppo1.jpg HTTP/1.1" 304 -
127.0.0.1 - - [28/Dec/2018:11:36:23 +0700] "GET /struts/resources/images/oppo2.jpg HTTP/1.1" 304 -
127.0.0.1 - - [28/Dec/2018:11:36:23 +0700] "GET /struts/resources/css/style.css HTTP/1.1" 304 -
127.0.0.1 - - [28/Dec/2018:11:36:23 +0700] "GET /struts/resources/bootstrap/css/bootstrap.min.css HTTP/1.1" 304 -
127.0.0.1 - - [28/Dec/2018:11:36:23 +0700] "GET /struts/resources/js/custom.js HTTP/1.1" 304 -
127.0.0.1 - - [28/Dec/2018:11:36:23 +0700] "GET /struts/resources/images/samsung3.jpg HTTP/1.1" 304 -
127.0.0.1 - - [28/Dec/2018:11:36:23 +0700] "GET /struts/resources/images/samsung4.jpg HTTP/1.1" 304 -
127.0.0.1 - - [28/Dec/2018:11:36:23 +0700] "GET /struts/resources/bootstrap/js/bootstrap.min.js HTTP/1.1" 304 -
127.0.0.1 - - [28/Dec/2018:11:36:23 +0700] "GET /struts/resources/images/samsung2.jpg HTTP/1.1" 304 -
127.0.0.1 - - [28/Dec/2018:11:36:23 +0700] "GET /struts/ HTTP/1.1" 302 -
127.0.0.1 - - [28/Dec/2018:11:36:27 +0700] "GET /struts/index HTTP/1.1" 200 9907
127.0.0.1 - - [28/Dec/2018:11:36:27 +0700] "GET /struts/resources/images/oppo3.jpg HTTP/1.1" 304 -
127.0.0.1 - - [28/Dec/2018:11:36:27 +0700] "GET /struts/resources/images/oppo4.jpg HTTP/1.1" 304 -
127.0.0.1 - - [28/Dec/2018:11:36:27 +0700] "GET /struts/resources/images/iphone3.jpg HTTP/1.1" 304 -
127.0.0.1 - - [28/Dec/2018:11:36:27 +0700] "GET /struts/resources/images/iphone1.jpg HTTP/1.1" 304 -
127.0.0.1 - - [28/Dec/2018:11:36:27 +0700] "GET /struts/resources/images/iphone2.jpg HTTP/1.1" 304 -
127.0.0.1 - - [28/Dec/2018:11:36:50 +0700] "GET /struts/index HTTP/1.1" 200 9907
127.0.0.1 - - [28/Dec/2018:11:36:50 +0700] "GET /struts/resources/css/style.css HTTP/1.1" 200 2261
127.0.0.1 - - [28/Dec/2018:11:36:50 +0700] "GET /struts/resources/bootstrap/css/bootstrap.min.css HTTP/1.1" 200 140936
127.0.0.1 - - [28/Dec/2018:11:36:51 +0700] "GET /struts/resources/images/samsung4.jpg HTTP/1.1" 200 37470
127.0.0.1 - - [28/Dec/2018:11:36:51 +0700] "GET /struts/resources/images/oppo2.jpg HTTP/1.1" 200 51203
127.0.0.1 - - [28/Dec/2018:11:36:51 +0700] "GET /struts/resources/images/oppo3.jpg HTTP/1.1" 200 51203
127.0.0.1 - - [28/Dec/2018:11:36:51 +0700] "GET /struts/resources/images/iphone2.jpg HTTP/1.1" 200 68242
127.0.0.1 - - [28/Dec/2018:11:36:51 +0700] "GET /struts/resources/images/iphone1.jpg HTTP/1.1" 200 67621
127.0.0.1 - - [28/Dec/2018:11:36:51 +0700] "GET /struts/resources/images/oppo4.jpg HTTP/1.1" 200 37894
127.0.0.1 - - [28/Dec/2018:11:36:51 +0700] "GET /struts/resources/images/oppo1.jpg HTTP/1.1" 200 48845
127.0.0.1 - - [28/Dec/2018:11:36:51 +0700] "GET /struts/resources/images/iphone3.jpg HTTP/1.1" 200 77485
127.0.0.1 - - [28/Dec/2018:11:36:51 +0700] "GET /struts/resources/js/custom.js HTTP/1.1" 304 -
127.0.0.1 - - [28/Dec/2018:11:36:51 +0700] "GET /struts/resources/bootstrap/js/bootstrap.min.js HTTP/1.1" 304 -
127.0.0.1 - - [28/Dec/2018:11:36:52 +0700] "GET /favicon.ico HTTP/1.1" 404 1085
127.0.0.1 - - [28/Dec/2018:11:36:54 +0700] "GET /struts/loginexe HTTP/1.1" 200 1205
127.0.0.1 - - [28/Dec/2018:11:36:54 +0700] "GET /struts/resources/css/style.css HTTP/1.1" 304 -
127.0.0.1 - - [28/Dec/2018:11:36:54 +0700] "GET /struts/resources/bootstrap/css/bootstrap.min.css HTTP/1.1" 304 -
127.0.0.1 - - [28/Dec/2018:11:39:45 +0700] "GET /struts/loginexe HTTP/1.1" 200 1205
127.0.0.1 - - [28/Dec/2018:11:39:45 +0700] "GET /struts/resources/css/style.css HTTP/1.1" 304 -
127.0.0.1 - - [28/Dec/2018:11:39:45 +0700] "GET /struts/resources/bootstrap/css/bootstrap.min.css HTTP/1.1" 304 -
127.0.0.1 - - [28/Dec/2018:11:39:45 +0700] "GET /struts/resources/js/custom.js HTTP/1.1" 304 -
127.0.0.1 - - [28/Dec/2018:11:39:45 +0700] "GET /struts/resources/bootstrap/js/bootstrap.min.js HTTP/1.1" 304 -
127.0.0.1 - - [28/Dec/2018:11:40:50 +0700] "GET /struts/loginexe HTTP/1.1" 200 1205
127.0.0.1 - - [28/Dec/2018:11:40:50 +0700] "GET /struts/resources/bootstrap/css/bootstrap.min.css HTTP/1.1" 304 -
127.0.0.1 - - [28/Dec/2018:11:40:50 +0700] "GET /struts/resources/css/style.css HTTP/1.1" 200 2679
127.0.0.1 - - [28/Dec/2018:11:40:50 +0700] "GET /struts/resources/bootstrap/js/bootstrap.min.js HTTP/1.1" 304 -
127.0.0.1 - - [28/Dec/2018:11:40:50 +0700] "GET /struts/resources/js/custom.js HTTP/1.1" 304 -
127.0.0.1 - - [28/Dec/2018:11:40:56 +0700] "GET /struts/loginexe?email=&password= HTTP/1.1" 200 1205
127.0.0.1 - - [28/Dec/2018:11:40:56 +0700] "GET /struts/resources/css/style.css HTTP/1.1" 304 -
127.0.0.1 - - [28/Dec/2018:11:40:57 +0700] "GET /struts/loginexe?email=&password= HTTP/1.1" 200 1205
127.0.0.1 - - [28/Dec/2018:11:40:57 +0700] "GET /struts/loginexe?email=&password= HTTP/1.1" 200 1205
127.0.0.1 - - [28/Dec/2018:11:40:58 +0700] "GET /struts/loginexe?email=&password= HTTP/1.1" 200 1205
127.0.0.1 - - [28/Dec/2018:11:41:00 +0700] "GET /struts/loginexe?email=a&password=a HTTP/1.1" 200 1205
127.0.0.1 - - [28/Dec/2018:11:41:33 +0700] "GET /struts/loginexe?email=a&password=a HTTP/1.1" 200 1234
127.0.0.1 - - [28/Dec/2018:11:41:33 +0700] "GET /struts/resources/css/style.css HTTP/1.1" 304 -
127.0.0.1 - - [28/Dec/2018:11:41:33 +0700] "GET /struts/resources/js/custom.js HTTP/1.1" 304 -
127.0.0.1 - - [28/Dec/2018:11:41:33 +0700] "GET /struts/resources/bootstrap/js/bootstrap.min.js HTTP/1.1" 304 -
127.0.0.1 - - [28/Dec/2018:11:41:33 +0700] "GET /struts/resources/bootstrap/css/bootstrap.min.css HTTP/1.1" 304 -
127.0.0.1 - - [28/Dec/2018:11:41:35 +0700] "GET /struts/loginexe?email=a&password=a HTTP/1.1" 200 1234
127.0.0.1 - - [28/Dec/2018:11:41:35 +0700] "GET /struts/resources/css/style.css HTTP/1.1" 304 -
127.0.0.1 - - [28/Dec/2018:11:41:35 +0700] "GET /struts/resources/js/custom.js HTTP/1.1" 304 -
127.0.0.1 - - [28/Dec/2018:11:41:35 +0700] "GET /struts/resources/bootstrap/css/bootstrap.min.css HTTP/1.1" 304 -
127.0.0.1 - - [28/Dec/2018:11:41:35 +0700] "GET /struts/resources/bootstrap/js/bootstrap.min.js HTTP/1.1" 304 -
127.0.0.1 - - [28/Dec/2018:11:41:40 +0700] "POST /struts/login HTTP/1.1" 200 1234
127.0.0.1 - - [28/Dec/2018:11:42:37 +0700] "POST /struts/login HTTP/1.1" 200 1234
127.0.0.1 - - [28/Dec/2018:11:42:37 +0700] "GET /struts/resources/css/style.css HTTP/1.1" 304 -
127.0.0.1 - - [28/Dec/2018:11:42:39 +0700] "POST /struts/login HTTP/1.1" 200 1234
127.0.0.1 - - [28/Dec/2018:11:43:41 +0700] "POST /struts/login HTTP/1.1" 200 1262
127.0.0.1 - - [28/Dec/2018:11:43:41 +0700] "GET /struts/resources/css/style.css HTTP/1.1" 304 -
127.0.0.1 - - [28/Dec/2018:11:43:41 +0700] "GET /struts/resources/bootstrap/js/bootstrap.min.js HTTP/1.1" 304 -
127.0.0.1 - - [28/Dec/2018:11:43:41 +0700] "GET /struts/resources/js/custom.js HTTP/1.1" 304 -
127.0.0.1 - - [28/Dec/2018:11:43:41 +0700] "GET /struts/resources/bootstrap/css/bootstrap.min.css HTTP/1.1" 304 -
127.0.0.1 - - [28/Dec/2018:11:43:59 +0700] "POST /struts/login HTTP/1.1" 200 1262
127.0.0.1 - - [28/Dec/2018:11:44:05 +0700] "POST /struts/login HTTP/1.1" 200 1262
127.0.0.1 - - [28/Dec/2018:11:44:05 +0700] "GET /struts/resources/css/style.css HTTP/1.1" 304 -
127.0.0.1 - - [28/Dec/2018:11:49:58 +0700] "GET / HTTP/1.1" 404 1074
127.0.0.1 - - [28/Dec/2018:11:50:00 +0700] "GET /struts/ HTTP/1.1" 302 -
127.0.0.1 - - [28/Dec/2018:11:50:05 +0700] "GET /struts/index HTTP/1.1" 200 9907
127.0.0.1 - - [28/Dec/2018:11:52:12 +0700] "GET / HTTP/1.1" 404 1074
127.0.0.1 - - [28/Dec/2018:11:52:22 +0700] "GET /struts/ HTTP/1.1" 302 -
127.0.0.1 - - [28/Dec/2018:11:52:34 +0700] "GET /struts/index HTTP/1.1" 500 6142
127.0.0.1 - - [28/Dec/2018:11:55:24 +0700] "GET / HTTP/1.1" 404 1074
127.0.0.1 - - [28/Dec/2018:11:55:34 +0700] "GET /struts/ HTTP/1.1" 302 -
127.0.0.1 - - [28/Dec/2018:11:55:41 +0700] "GET /struts/index HTTP/1.1" 200 9907
127.0.0.1 - - [28/Dec/2018:11:55:55 +0700] "GET /struts/loginexe HTTP/1.1" 200 1262
127.0.0.1 - - [28/Dec/2018:11:55:56 +0700] "GET /struts/resources/css/style.css HTTP/1.1" 304 -
127.0.0.1 - - [28/Dec/2018:11:56:02 +0700] "POST /struts/login HTTP/1.1" 302 -
127.0.0.1 - - [28/Dec/2018:11:56:02 +0700] "GET /struts/index HTTP/1.1" 200 9907
127.0.0.1 - - [28/Dec/2018:11:56:02 +0700] "GET /struts/resources/images/oppo3.jpg HTTP/1.1" 304 -
127.0.0.1 - - [28/Dec/2018:11:56:02 +0700] "GET /struts/resources/images/oppo4.jpg HTTP/1.1" 304 -
127.0.0.1 - - [28/Dec/2018:11:56:02 +0700] "GET /struts/resources/images/iphone2.jpg HTTP/1.1" 304 -
127.0.0.1 - - [28/Dec/2018:11:56:02 +0700] "GET /struts/resources/images/iphone1.jpg HTTP/1.1" 304 -
127.0.0.1 - - [28/Dec/2018:11:56:02 +0700] "GET /struts/resources/images/iphone3.jpg HTTP/1.1" 304 -
127.0.0.1 - - [28/Dec/2018:11:56:02 +0700] "GET /struts/resources/images/oppo1.jpg HTTP/1.1" 304 -
127.0.0.1 - - [28/Dec/2018:11:56:02 +0700] "GET /struts/resources/images/oppo2.jpg HTTP/1.1" 304 -
127.0.0.1 - - [28/Dec/2018:11:56:11 +0700] "GET /struts/loginexe HTTP/1.1" 200 1262
127.0.0.1 - - [28/Dec/2018:11:56:15 +0700] "POST /struts/login HTTP/1.1" 200 1262
127.0.0.1 - - [28/Dec/2018:11:56:20 +0700] "POST /struts/login HTTP/1.1" 302 -
127.0.0.1 - - [28/Dec/2018:11:56:20 +0700] "GET /struts/index HTTP/1.1" 200 9907
127.0.0.1 - - [28/Dec/2018:12:00:52 +0700] "GET /struts/loginexe HTTP/1.1" 200 1262
127.0.0.1 - - [28/Dec/2018:12:00:53 +0700] "GET /struts/index HTTP/1.1" 200 10000
127.0.0.1 - - [28/Dec/2018:12:01:04 +0700] "GET /struts/resources/css/style.css HTTP/1.1" 304 -
127.0.0.1 - - [28/Dec/2018:12:01:18 +0700] "POST /struts/login HTTP/1.1" 302 -
127.0.0.1 - - [28/Dec/2018:12:01:18 +0700] "GET /struts/index HTTP/1.1" 200 9454
127.0.0.1 - - [28/Dec/2018:12:03:27 +0700] "GET /struts/index HTTP/1.1" 200 29662
127.0.0.1 - - [28/Dec/2018:12:03:44 +0700] "GET /struts/index HTTP/1.1" 200 9957
127.0.0.1 - - [28/Dec/2018:12:03:44 +0700] "GET /struts/resources/css/style.css HTTP/1.1" 304 -
127.0.0.1 - - [28/Dec/2018:12:03:44 +0700] "GET /struts/resources/js/custom.js HTTP/1.1" 304 -
127.0.0.1 - - [28/Dec/2018:12:03:44 +0700] "GET /struts/resources/images/oppo4.jpg HTTP/1.1" 304 -
127.0.0.1 - - [28/Dec/2018:12:03:44 +0700] "GET /struts/resources/bootstrap/js/bootstrap.min.js HTTP/1.1" 304 -
127.0.0.1 - - [28/Dec/2018:12:03:44 +0700] "GET /struts/resources/images/oppo3.jpg HTTP/1.1" 304 -
127.0.0.1 - - [28/Dec/2018:12:03:44 +0700] "GET /struts/resources/bootstrap/css/bootstrap.min.css HTTP/1.1" 304 -
127.0.0.1 - - [28/Dec/2018:12:03:44 +0700] "GET /struts/resources/images/iphone2.jpg HTTP/1.1" 304 -
127.0.0.1 - - [28/Dec/2018:12:03:44 +0700] "GET /struts/resources/images/samsung4.jpg HTTP/1.1" 304 -
127.0.0.1 - - [28/Dec/2018:12:03:44 +0700] "GET /struts/resources/images/iphone3.jpg HTTP/1.1" 304 -
127.0.0.1 - - [28/Dec/2018:12:03:44 +0700] "GET /struts/resources/images/iphone1.jpg HTTP/1.1" 304 -
127.0.0.1 - - [28/Dec/2018:12:03:44 +0700] "GET /struts/resources/images/oppo1.jpg HTTP/1.1" 304 -
127.0.0.1 - - [28/Dec/2018:12:03:44 +0700] "GET /struts/resources/images/oppo2.jpg HTTP/1.1" 304 -
127.0.0.1 - - [28/Dec/2018:12:04:55 +0700] "GET /struts/index HTTP/1.1" 200 20415
127.0.0.1 - - [28/Dec/2018:12:06:02 +0700] "GET /struts/index HTTP/1.1" 200 10039
127.0.0.1 - - [28/Dec/2018:12:06:02 +0700] "GET /struts/resources/bootstrap/css/bootstrap.min.css HTTP/1.1" 304 -
127.0.0.1 - - [28/Dec/2018:12:06:02 +0700] "GET /struts/resources/css/style.css HTTP/1.1" 304 -
127.0.0.1 - - [28/Dec/2018:12:06:02 +0700] "GET /struts/resources/bootstrap/js/bootstrap.min.js HTTP/1.1" 304 -
127.0.0.1 - - [28/Dec/2018:12:06:02 +0700] "GET /struts/resources/images/oppo4.jpg HTTP/1.1" 304 -
127.0.0.1 - - [28/Dec/2018:12:06:02 +0700] "GET /struts/resources/images/oppo3.jpg HTTP/1.1" 304 -
127.0.0.1 - - [28/Dec/2018:12:06:02 +0700] "GET /struts/resources/images/iphone1.jpg HTTP/1.1" 304 -
127.0.0.1 - - [28/Dec/2018:12:06:02 +0700] "GET /struts/resources/js/custom.js HTTP/1.1" 304 -
127.0.0.1 - - [28/Dec/2018:12:06:02 +0700] "GET /struts/resources/images/iphone2.jpg HTTP/1.1" 304 -
127.0.0.1 - - [28/Dec/2018:12:06:02 +0700] "GET /struts/resources/images/samsung4.jpg HTTP/1.1" 304 -
127.0.0.1 - - [28/Dec/2018:12:06:02 +0700] "GET /struts/resources/images/iphone3.jpg HTTP/1.1" 304 -
127.0.0.1 - - [28/Dec/2018:12:06:02 +0700] "GET /struts/resources/images/oppo2.jpg HTTP/1.1" 304 -
127.0.0.1 - - [28/Dec/2018:12:06:02 +0700] "GET /struts/resources/images/oppo1.jpg HTTP/1.1" 304 -
127.0.0.1 - - [28/Dec/2018:12:08:39 +0700] "GET /struts/index HTTP/1.1" 200 10039
127.0.0.1 - - [28/Dec/2018:12:08:39 +0700] "GET /struts/resources/bootstrap/css/bootstrap.min.css HTTP/1.1" 304 -
127.0.0.1 - - [28/Dec/2018:12:08:39 +0700] "GET /struts/resources/js/custom.js HTTP/1.1" 304 -
127.0.0.1 - - [28/Dec/2018:12:08:39 +0700] "GET /struts/resources/bootstrap/js/bootstrap.min.js HTTP/1.1" 304 -
127.0.0.1 - - [28/Dec/2018:12:08:39 +0700] "GET /struts/resources/css/style.css HTTP/1.1" 304 -
127.0.0.1 - - [28/Dec/2018:12:08:39 +0700] "GET /struts/resources/images/oppo4.jpg HTTP/1.1" 304 -
127.0.0.1 - - [28/Dec/2018:12:08:39 +0700] "GET /struts/resources/images/iphone2.jpg HTTP/1.1" 304 -
127.0.0.1 - - [28/Dec/2018:12:08:39 +0700] "GET /struts/resources/images/iphone3.jpg HTTP/1.1" 304 -
127.0.0.1 - - [28/Dec/2018:12:08:39 +0700] "GET /struts/resources/images/oppo2.jpg HTTP/1.1" 304 -
127.0.0.1 - - [28/Dec/2018:12:08:39 +0700] "GET /struts/resources/images/oppo3.jpg HTTP/1.1" 304 -
127.0.0.1 - - [28/Dec/2018:12:08:39 +0700] "GET /struts/resources/images/samsung4.jpg HTTP/1.1" 304 -
127.0.0.1 - - [28/Dec/2018:12:08:39 +0700] "GET /struts/resources/images/iphone1.jpg HTTP/1.1" 304 -
127.0.0.1 - - [28/Dec/2018:12:08:39 +0700] "GET /struts/resources/images/oppo1.jpg HTTP/1.1" 304 -
127.0.0.1 - - [28/Dec/2018:12:09:59 +0700] "GET / HTTP/1.1" 404 1074
127.0.0.1 - - [28/Dec/2018:12:10:06 +0700] "GET /struts/ HTTP/1.1" 302 -
127.0.0.1 - - [28/Dec/2018:12:10:17 +0700] "GET /struts/index HTTP/1.1" 200 10000
127.0.0.1 - - [28/Dec/2018:12:10:53 +0700] "GET /struts/ HTTP/1.1" 302 -
127.0.0.1 - - [28/Dec/2018:12:10:53 +0700] "GET /struts/index HTTP/1.1" 200 10000
127.0.0.1 - - [28/Dec/2018:12:11:00 +0700] "GET /struts/index HTTP/1.1" 200 10000
127.0.0.1 - - [28/Dec/2018:12:11:02 +0700] "GET /struts/resources/css/style.css HTTP/1.1" 304 -
127.0.0.1 - - [28/Dec/2018:12:11:02 +0700] "GET /struts/resources/bootstrap/js/bootstrap.min.js HTTP/1.1" 304 -
127.0.0.1 - - [28/Dec/2018:12:11:02 +0700] "GET /struts/resources/bootstrap/css/bootstrap.min.css HTTP/1.1" 304 -
127.0.0.1 - - [28/Dec/2018:12:11:02 +0700] "GET /struts/resources/js/custom.js HTTP/1.1" 304 -
127.0.0.1 - - [28/Dec/2018:12:11:03 +0700] "GET /struts/resources/images/iphone2.jpg HTTP/1.1" 304 -
127.0.0.1 - - [28/Dec/2018:12:11:03 +0700] "GET /struts/resources/images/iphone3.jpg HTTP/1.1" 304 -
127.0.0.1 - - [28/Dec/2018:12:11:03 +0700] "GET /struts/resources/images/oppo4.jpg HTTP/1.1" 304 -
127.0.0.1 - - [28/Dec/2018:12:11:03 +0700] "GET /struts/resources/images/iphone1.jpg HTTP/1.1" 304 -
127.0.0.1 - - [28/Dec/2018:12:11:03 +0700] "GET /struts/resources/images/samsung4.jpg HTTP/1.1" 304 -
127.0.0.1 - - [28/Dec/2018:12:11:03 +0700] "GET /struts/resources/images/oppo1.jpg HTTP/1.1" 304 -
127.0.0.1 - - [28/Dec/2018:12:11:03 +0700] "GET /struts/resources/images/oppo2.jpg HTTP/1.1" 304 -
127.0.0.1 - - [28/Dec/2018:12:11:03 +0700] "GET /struts/resources/images/oppo3.jpg HTTP/1.1" 304 -
127.0.0.1 - - [28/Dec/2018:12:11:06 +0700] "GET /struts/loginexe HTTP/1.1" 200 1262
127.0.0.1 - - [28/Dec/2018:12:11:11 +0700] "POST /struts/login HTTP/1.1" 302 -
127.0.0.1 - - [28/Dec/2018:12:11:11 +0700] "GET /struts/index HTTP/1.1" 200 10039
127.0.0.1 - - [28/Dec/2018:12:12:25 +0700] "GET /struts/resources/bootstrap/css/bootstrap.min.css HTTP/1.1" 500 8192
